    4
12286
12288
    0
12285
    3
    0
    1
    2
12286
    4
    1
    0
12287
    1
    2
12285
12286
    1
12288
    1
12287
    1
    2
12286
    1
    2
12284
    4
12288
    0
12287
12285
    2
    4
12285
    0
12288
    0
12288
    1
    0
12286
    7
12286
    1
    2
    0
    2
12288
12288
    5
    1
12284
    0
    1
    4
12288
12285
12288
12286
    2
    1
    0
12288
12288
12286
    3
12287
12288
    1
12287
12285
    2
    0
12288
    4
    1
    1
12287
    1
12284
12288
    3
12288
12286
    4
12287
    0
12287
    6
    0
    1
12286
    0
    3
    0
    0
12286
12284
    0
12288
12287
12286
    0
    0
12287
12283
    2
    2
    2
12287
    0
    3
    4
    1
    1
12286
    0
    1
    1
    2
    0
    4
12287
    0
12288
    7
    0
12288
    0
    0
    0
    1
12287
    0
12288
    4
    1
12288
    1
    1
12287
    0
    2
12285
    1
    0
12286
12288
    3
12286
    2
12288
12288
    1
    2
    1
    0
12283
12287
    4
    1
    2
12287
    1
    1
12288
    1
    3
12286
12284
12286
    3
    6
12287
12288
    2
    0
    0
12286
    3
    0
12285
    1
    4
    0
    1
12288
    0
12284
    2
12288
    1
12288
12286
    1
12286
12283
    2
12288
    4
12286
12286
12288
12287
    3
    0
12287
    0
    3
    0
    2
12285
    8
12286
    2
12286
    1
12287
12285
    1
12286
12288
12282
12286
12286
12286
    3
    4
12288
    4
    2
12288
12287
    0
    4
    0
    0
12288
12285
12288
    3
    1
    0
    2
12286
    1
12284
    1
    2
    0
12288
12287
    3
    0
    2
    4
    0
12288
12287
    0
    2
    4
12284
12288
12285
12286
12286
    1
12285
12286
12287
    2
12287
12288
12288
12288
    2
    0
    3
    3
    1
    3
12286
12288
    0
    0
12288
12288
    5
    1
12286
    2
12288
12287
12288
    2
    5
12286
    5
12282
    4
12284
    6
12287
    3
12287
12284
12287
    3
    2
    0
    0
12287
12288
    3
12287
    4
    0
    3
12286
12287
    5
    0
12287
    0
    1
12284
    3
    7
    1
    2
    1
    4
    0
    1
    4
    2
12288
12285
12285
12287
12282
12288
    0
    1
    2
    4
    1
    1
    5
12287
    6
12287
    4
    0
    2
    4
    7
    0
    0
    1
    8
12288
    2
    3
12286
12288
12286
12285
12285
    0
    0
12288
12285
    3
    2
    0
    2
    0
12288
    2
    0
12287
12287
12282
    0
12285
    2
12286
    2
    0
    0
    0
    6
    0
    4
    1
12284
12286
    4
    0
12286
    0
12288
    3
12286
12284
    4
12288
12287
12284
    1
    2
    3
12287
12285
    2
    5
    2
12281
    4
    1
    2
    0
12286
12285
12286
12288
    0
12288
    2
    1
    5
    2
    0
    1
    6
12286
12285
    2
    0
    0
    4
    1
12288
    0
    0
12288
    2
12288
12288
12287
12286
    1
12286
12288
    1
    8
12287
    1
12288
12287
    2
    2
12286
    1
12288
    1
12287
    0
    0
    2
12288
12288
    0
    3
12286
    1
    2
12288
12285
    4
12285
    0
    2
    2
    1
    1
    0
12288
    7
12288
12287
    0
12284
    5
12288
12283
12287
    5
12284
    1
    1
    1
12288
    0
12288
    0
    1
12288
    1
12288
    2
    2
    2
    1
    0
    2
12286
12285
12288
    0
12287
    4
12287
12288
    4
    2
    2
12285
    2
    0
    5
    2
12286
12287
    3
12288
12287
    2
12285
    5
12285
    0
12287
12288
    5
12286
12286
    2
    2
12286
12284
12286
    3
    3
12284
12287
    2
    3
    0
12287
    5
    2
12287
    0
12287
    2
    3
12286
    3
12287
    4
    4
12285
12287
    0
    1
12287
    2
12288
    0
12287
12285
12285
    3
12287
12288
    3
    0
12288
12287
    5
    3
    4
12284
    1
12284
    0
    0
    0
    1
12287
    2
    0
12283
12287
12285
    1
    1
    2
    1
    0
12284
    6
    1
12286
12285
    0
12288
    0
    1
    3
    2
    1
12287
12288
12288
12286
    2
    2
12287
12287
12287
    0
12288
12285
    6
    1
12288
    0
12288
    1
    1
12288
12284
12285
    0
    0
    4
    1
    0
    0
    5
12288
    3
12287
12286
    0
    2
    2
    4
12287
    0
    2
    0
12288
    4
12284
12288
    4
    3
12286
12286
    5
12287
    1
    2
    2
12287
    0
12286
    1
    2
12286
12288
12286
    1
    1
12288
12286
12287
    0
    7
    1
12288
    4
    2
12288
12284
12288
    3
    0
12286
12287
    1
12288
    3
12287
    3
12287
    0
12284
    0
12288
    1
    5
12287
    2
    2
12287
    0
    2
    0
12286
12287
12287
    2
12288
12287
12286
12285
12288
    2
12285
    2
    1
    1
12287
    2
    2
    2
12287
    1
    3
    0
    1
12288
    0
    2
12288
12288
12287
    1
12284
12287
    3
12286
    3
12286
    5
12288
    0
    0
    4
12288
    3
12287
12288
12288
12287
12288
    4
12285
12286
    3
    2
    1
12287
    1
12284
12287
12288
12286
12286
    3
    0
12286
    4
    2
    1
12286
    2
    0
12286
    2
12285
    1
    3
    1
12287
12287
12288
    1
    1
    0
12285
12286
    0
    0
    1
    1
    0
12285
    1
12287
12288
    1
12287
    4
12286
    2
    1
12285
    3
    4
12284
12287
    0
12285
12283
    1
    2
    1
    1
12285
12287
12288
12288
    2
12287
    3
    0
    3
12288
    1
    6
    1
    5
    3
    2
    0
    0
    0
    3
12284
    0
    1
    4
12284
    2
    0
    1
    0
    3
12285
12288
12284
    0
    5
    7
    2
    2
12284
12288
    2
12286
    4
12287
    1
12288
    4
    1
    3
12287
12287
12287
    1
    2
    6
12288
12287
    0
    1
    7
    1
12285
    1
12286
    2
    2
    1
12287
12285
    0
    2
    1
12285
    4
12287
12288
12286
12287
12287
12286
    2
    5
    0
    3
12284
    1
12285
12288
12288
12288
12286
    1
12288
12288
    1
    5
    1
12286
    4
    2
12287
    3
    0
    0
    1
    1
    3
12288
    1
    4
12283
12288
12288
    7
12287
    4
12287
12286
    1
12288
12283
12285
12285
    7
12284
    2
12286
    1
    3
    5
12284
    4
12287
12285
    2
    0
    2
12286
    3
12283
12287
12286
    2
12288
    1
12286
12288
    0
12287
12286
    0
12287
    0
    3
    2
12285
12288
12288
12286
    2
    1
12288
12286
12287
    2
    2
    0
12286
12288
    1
12286
12286
12286
12287
12287
    3
12288
12285
12286
    1
12288
    2
    3
12287
12287
12284
12287
