5602
4876
2c73
4aeb
819c
6d6a
398d
258d
9408
632b
4bc5
6ae3
345e
5acc
55ea
510a
3943
70d0
52c3
73b0
507e
5035
5a7c
650b
5a0c
4de2
5511
53db
8e1f
5a75
a2a3
7aec
2569
6565
3efb
425a
7e4b
6667
92b6
5ef7
8452
8922
4a5a
6eea
61d4
6709
57e8
6e01
5f9f
9226
3736
7ad5
4a3f
5a0a
5adb
4730
67be
792c
5339
58a1
3c8b
4c87
73cd
742f
65b4
52f8
3f8a
8d26
6e21
2994
5170
5cf3
3833
475c
4f9f
4127
93bf
447e
7165
5b37
3a22
2da9
7f31
4b4d
55a6
6298
62b5
6eb9
a265
6578
6222
87f7
603c
881e
91fe
7752
77cd
6ea8
41a3
7124
5dc4
31ae
6580
738c
461e
5640
76e7
1fc0
8d9a
73df
6b91
7cfb
8398
741a
6eff
3a92
2393
6304
3f9d
64ed
634b
4e2e
4bb0
5e92
6eca
4ed5
419b
4167
522a
4e2a
61a8
7e73
8670
7648
67a4
66ee
4392
58b1
5e2a
6a9e
4ed9
6577
5bb2
7443
55f3
52e6
6b67
6af8
5735
711b
705d
66ae
6fd6
7469
676b
62b0
5d28
56bf
2dfb
6efc
3dcf
518b
93a7
5ab7
50ae
48a1
6aba
589f
569f
7be0
6a5a
4a79
616b
4b6b
2b6d
2f2b
4ab9
847a
49ad
64c4
5299
87a3
80ae
5c6e
520e
654f
77f1
8975
5568
91e1
6f2e
8723
752b
383c
89a8
626b
8307
916d
46cd
83b0
4b1c
5959
7e6c
99a3
4d32
5e23
5557
57c7
7f33
52b4
3027
5bf1
79ef
63a0
47ec
3008
56c1
691e
3c49
5952
70db
76ad
63b0
6e2e
8ea2
8057
9595
3e08
4242
8364
6d80
39b1
5c93
468b
6837
2565
629e
659d
43a8
712e
71ad
5091
6c43
4951
493b
444d
6416
5b60
6b42
9c87
685b
5b16
48cb
3ba5
5104
4ddd
326a
4b8f
6dab
6b16
7346
1ebe
414d
7479
68db
3623
68fd
4c74
50b8
8e38
4c92
6a06
714e
40de
8228
6ce3
741e
5571
451a
83fd
7cf2
5b02
3cb0
542d
95c2
5b20
6d53
4fc4
4890
50f9
8e54
6c5a
70de
5770
684b
5066
5f25
6a57
514e
5bbc
31bb
34cf
59e7
5a11
79b7
4e5f
5bca
3cc2
6c31
5aeb
7633
6f4e
4ffc
a64f
4adf
3bb1
6171
378e
909b
4f50
3ad6
5bc2
40cd
6bef
55d9
87d4
2fed
52d5
694e
300e
5bc0
2a11
33b5
482d
546e
6f80
22e6
6a32
2db0
4cc9
70ce
63a7
762b
6584
716c
5789
587d
8e12
7b9a
6e48
4922
54f5
8395
6bf2
5ad6
2e2a
6293
6dbc
43d4
34bd
3880
6b31
61e5
8136
6a1b
4e27
85d3
5148
2c03
4432
8b6e
58a3
6274
8d7a
6afb
6bdd
2f92
77e9
7923
3a2a
785c
497a
63c3
51f9
7448
84a4
6ff5
5684
2e29
68f5
47ad
5348
86bc
6d12
636e
2886
66c8
73d6
848a
5544
772a
5c75
7211
6c66
687a
5b88
3faf
5133
4e3c
817d
5063
6e17
8396
4f7f
7d46
8145
3dbb
6983
9096
4e0b
2885
2ffe
27bf
5db7
5f25
4f31
4bf0
4bf3
2c33
628e
6228
3d0a
4ff4
5d13
709b
6471
4dc5
4e92
6c6d
7a70
702d
7440
5ac6
4a6e
92d5
603d
6d18
57ac
78df
7391
8233
3837
4b4e
5b8d
9927
3d66
4ba4
3e6b
86dc
5285
74da
a194
4612
5c38
6a76
64bd
4d2c
7163
8a67
4275
50e1
6df9
866d
7294
8e1d
49a9
6b06
3307
78cf
1cab
3ea5
75b5
374e
21be
3c79
499c
7036
8ac0
4795
7446
8211
3dd0
543b
524a
69a9
476f
3f52
7221
7ad9
3d00
390a
8dde
5d75
3106
833e
7d93
8014
a069
6128
77b4
741b
639a
5308
8064
48b2
6bf9
456c
47f3
4658
54d4
3d11
7730
5e02
68da
65de
5a68
6cb4
6d41
67c0
5f39
4528
5089
55fc
7e81
5211
78bd
65e5
797c
5b5a
478f
3488
7866
8eea
9080
7312
90fa
3780
7c2c
77d7
6448
4fa4
4865
9c80
8969
3bfa
6501
5dc1
32c7
6d95
3c9a
8230
4a14
6259
6f6a
2fea
4885
4c8c
7a4c
4476
4699
6388
59ca
62ee
6217
8a36
64ed
205c
2c16
5fc4
76d6
469f
3b56
7242
7c8e
7b23
52da
620f
4f08
8075
59fa
59a4
3a02
6407
561f
600d
1e97
507d
4d9d
8c5f
a27b
45a3
8928
806a
214c
4527
2588
26a1
4002
6f4b
4716
4dc7
8466
7473
9172
62f2
6894
7861
4d6e
3e25
6e2d
45f5
3d9b
5937
6b43
8a68
5b32
77f6
7f23
6c66
705d
359e
56b9
478d
59d4
4f48
78c8
8db5
4742
34e3
3849
5dd5
68e5
467a
81cb
44e9
47c6
698f
434e
7522
4f34
418a
5f46
5964
702a
2d4e
3375
6850
6c73
6f09
9964
5ca0
49bf
888b
4c7e
7cab
51a5
7e72
73a2
6036
650d
9dce
6b00
7d20
8015
3960
61e7
6006
628b
7698
80c3
5c17
415f
71ba
6297
8c07
5ef5
5559
584f
7643
543b
48f7
4d70
7451
674c
8598
8043
36b6
4993
5c3c
50fa
7444
668f
462e
4b7e
7d96
8b4f
5202
588f
6466
744d
4482
1f6f
5239
70f4
42b6
5b55
79c8
4f09
794f
4b64
6376
7327
6240
5a78
6457
83ff
6144
9aea
77ec
6122
4dd0
70c2
7830
84ee
6d9b
6563
33f4
4b36
764c
7957
64a7
69f0
5f8e
366c
5ece
6828
45a5
719d
2bc3
5496
83e3
388e
54dc
33ff
63d9
6a9f
9928
6107
89fa
5856
30b8
3af8
5916
77d4
470c
3920
6764
96c9
47da
4da9
3e39
886d
4a38
69b6
6dc7
3d42
7566
6201
733e
6180
51a3
7d85
4d54
5037
2a57
5a3f
5c1e
6f29
88f3
47cc
3b35
627c
40ba
6ad2
37b9
570d
69ae
560e
6236
565b
380b
58d2
5e62
5ee3
38b1
8048
7867
6969
4283
4c2c
3bbf
4ed8
58de
6e6c
54e5
3db6
86b6
6393
69cb
369d
5f0b
634e
44aa
4813
5ece
3f08
4e5c
6138
6f30
5eca
4460
6e39
6f63
7b0c
407c
7375
8a9e
6967
6a7c
6078
894e
3897
8e62
7e70
9ae0
8f36
56a7
5e28
51ce
4dc6
774e
6313
5bf7
7790
49ee
2e9b
52d0
7d21
6719
42a0
2e7f
3484
55c7
4dd7
77f2
7b8f
5d0a
71c9
8867
5e33
4c90
4e94
5c61
6ce2
3a96
43f9
56cf
3d76
609f
44ad
70d9
6ec7
5585
8217
64ac
77bf
50de
60f4
664e
89a1
4a74
529e
5e22
82f0
27f0
7fc3
5b43
6876
464b
4287
a249
3d1e
3f3e
4988
99fc
6349
5ce8
552b
6e2c
8be7
7810
3929
520f
5d80
5813
5e94
3c5c
8185
7c1d
760e
7240
5ae8
490d
7778
5381
44a1
4faf
5134
6650
2422
4a77
4028
6669
6d35
497f
5df3
6e9e
634b
89a3
79ad
6512
5dd3
9779
4e9c
60b8
5419
673d
7dba
4b07
4a93
7145
9fc5
5abe
4f07
5894
5d63
6718
820f
4d7f
462e
7cc7
6fe6
8673
6298
5f2e
33eb
8de4
42ab
857e
46d5
507a
653d
32c7
60c2
612a
5f95
5210
5a23
5d45
6a64
57d0
9368
5b17
4f93
7079
658f
5986
7f7b
55b1
71a3
9bf1
7554
6fd9
7a3a
4507
4c8e
63ab
5977
72a9
5c6c
75a7
6e4d
71d1
591e
5625
6046
4f9f
7d82
8ee1
77ae
3c85
85ea
3e37
7655
4bf2
7121
89c4
53ab
4a96
45f3
763f
6586
49a8
605a
