27661
27432
29622
23030
28318
25497
34018
26826
21916
21526
36084
32472
24231
25618
23555
19030
27221
19624
27203
37809
25634
35068
31929
17878
33989
17709
22409
15231
21382
17644
32976
32004
39983
25641
13792
21259
36181
24453
29397
34209
24773
29072
23646
15876
16956
34778
27695
 8846
32227
22663
19669
33780
12423
23002
26783
17119
33075
35722
22926
23628
30591
22519
23678
21283
10782
28260
33898
19892
25089
16593
25037
15212
24953
28752
21051
20809
22850
30737
33645
18105
34043
14563
16444
16665
17517
24654
33548
34848
28221
25266
27510
30178
23817
28710
20848
15696
17533
28417
21449
23366
25429
23946
15462
25504
 9909
19076
28082
18777
32624
32609
27179
20194
24621
25651
23069
30371
26688
30758
14996
17867
22413
26677
17863
25337
14237
31019
37008
20790
18731
11471
31058
35052
21482
17625
20310
19924
17525
18795
30957
 9365
37366
27758
32203
22351
34728
17871
29555
25146
28039
32843
28721
20067
36614
15740
24408
14039
25331
22953
34532
26578
20459
32723
24109
19073
26511
29165
35830
22894
27014
27984
18813
36994
27782
26054
34827
21632
28432
16627
19322
26171
38864
20206
 9116
16101
29910
20346
28761
24493
39468
27038
13392
30158
27062
28577
14815
24951
23723
35296
26735
14033
27736
12391
21494
24283
35308
22884
20469
23790
21591
28421
28664
25889
14411
34217
25815
29432
18417
22157
37996
36272
28174
21567
26121
27180
25265
25119
34498
25646
21816
20641
24852
20316
11476
19309
27369
29886
20837
31252
27452
28169
26049
20563
11872
36129
26805
37792
25941
16994
21283
31205
15643
34687
20417
24424
22764
30410
26027
20586
30991
25322
34818
35230
22281
18286
17295
23577
27790
22128
18005
33468
18564
28016
26119
23651
20324
17615
17521
25717
16335
34126
24244
19526
24645
16723
30739
23486
21853
25076
25384
31856
27203
32888
37170
30206
35862
32613
20500
14987
17238
32324
21376
15951
24588
42332
22913
24103
12681
17643
14686
 7050
29279
 9917
20495
30257
20951
23770
33108
19066
20045
35122
 6919
16415
22663
26431
30164
32045
26008
23596
18069
17029
22439
34958
11754
23756
28084
19158
14298
15417
23270
23692
17838
20300
14627
38831
14179
29616
29732
25463
21239
24599
20932
32114
11279
22637
38138
24990
34404
36924
17105
30050
29602
39417
18636
20076
14409
24930
31194
16042
22359
32046
26296
28930
37741
15308
11218
22094
15367
21319
32915
30736
16491
29920
16055
11358
18602
17385
11094
35555
10249
36132
36453
29597
34282
28601
25472
27505
30540
25020
22039
38277
24716
21278
37761
30143
36799
31605
34730
20756
18291
26455
18287
14434
36643
27351
31042
26667
29105
31129
35954
29889
24867
31083
24104
32074
24596
30457
17446
22364
37419
31816
17954
20026
25923
22052
18555
35544
17560
27851
31398
17438
24061
30352
24301
 7996
13285
24488
30080
19725
17915
30281
24065
20579
31404
29479
22490
20588
28668
15963
21368
 9922
29155
28554
16304
30236
12698
35056
34000
22030
32915
25056
31694
32511
22613
31102
26706
18827
38765
21336
21394
21704
28821
23463
19430
18572
22081
38552
32060
34439
26522
30352
28948
12608
19243
22028
35678
25815
26693
11087
33228
18731
27422
30796
20858
34559
29477
31825
17004
27751
19001
27790
19412
10892
32890
21315
32942
26061
20811
26153
24654
22171
33731
22796
30814
25922
37543
32868
16409
23428
14981
29287
39817
38102
27072
37467
25711
22229
33252
22876
30997
30078
18370
24444
29775
15301
12274
23707
19169
26255
22239
32121
35068
19024
23599
15713
23094
20395
18514
33921
18552
22343
15027
28909
29913
21083
25369
25605
23851
36666
25132
35721
22786
28115
19793
31369
21522
14258
40993
24534
21323
26530
35793
20560
29072
15184
20577
22845
15582
17505
18934
26076
32269
34431
39726
35184
16726
25460
15214
10608
28428
18261
30530
34873
31617
24359
18205
16404
13458
21053
21187
29613
22918
18644
35055
37452
20021
20361
30372
24750
39842
25868
29095
28685
16666
26726
31971
18014
31957
31055
 8794
28791
25280
26376
28996
28888
28594
21614
40448
32239
28308
20980
22418
37976
32038
21420
28495
25000
42154
30465
22629
27495
30277
27564
24182
21491
23400
17163
32185
18334
16368
30969
30106
24593
27445
24588
12273
33551
20659
21582
24945
22395
18217
15696
17770
21886
31482
25016
28268
23127
29110
17273
27013
11660
29358
32986
20327
21905
29124
36709
29108
23673
30515
18187
23194
15561
16110
25720
12271
23577
23851
24905
13456
19884
34975
18626
17253
18160
25915
26304
29080
28962
16585
29949
17242
31742
21091
14570
15229
20113
25818
23864
40102
30906
34985
23689
30156
11518
21378
13389
20328
32350
21180
16509
25778
15350
22641
25035
32820
25391
14132
33002
25135
12347
18904
31124
22111
24964
30912
17547
16152
16365
26357
17719
29849
17942
37908
20166
22179
32993
20021
21858
17373
24752
13072
26139
15881
23594
17573
28757
26416
37520
22946
31130
24551
30004
29729
39632
16649
34896
25070
23921
30299
20871
13472
29910
27409
29419
31681
21601
25631
38992
16310
28975
37199
25018
26693
14666
17868
29239
33412
31763
33054
34443
29666
32610
25737
30578
20481
29097
28935
19338
31486
30372
34622
23999
12922
14659
25265
38713
35110
18242
38161
17558
13070
20374
26737
28056
24690
25410
27620
20137
 9949
32047
31136
29225
31276
26329
22966
24212
33808
23368
30580
13833
21467
21930
12651
24443
19977
18364
13498
18416
15089
24236
15072
39103
26309
14141
29042
20110
29904
27719
27871
32180
27920
24672
32594
19223
22629
30564
17642
37559
22067
21097
18985
33963
10552
33466
25426
24779
17800
36811
26493
17871
35636
18450
26247
33344
39639
18225
20588
33919
23837
38976
22996
18508
19898
20635
22112
24157
18271
21886
18182
25884
27024
29484
21982
19308
20516
15974
29729
21250
28628
13426
29214
21011
31994
16673
33310
29729
19769
19083
16620
30306
25082
31790
34077
27661
27470
26305
18873
28623
24242
39795
30228
22116
 8591
19857
36080
21112
25920
18856
17117
33675
29769
28589
19300
35119
34882
16290
31106
 8472
13769
28417
29897
21348
12610
29847
39683
36386
28693
21994
26532
19092
13213
16200
11097
15779
20927
27896
31746
18041
21723
24122
26236
28973
14246
29052
31464
11296
21863
24354
39105
24931
19869
23417
18428
16752
32167
27934
26085
19704
13430
15225
32584
20213
29731
31522
15871
30257
24267
21034
28373
27435
14948
32839
20239
17741
35015
13915
16523
31336
24308
31000
23594
21568
23438
21087
24958
33629
20850
27089
29456
35299
10372
34820
